# 1 "main.c"
# 1 "<built-in>"
# 1 "<command-line>"
# 1 "main.c"



# 1 "c:\\mingw\\include\\stdlib.h" 1 3
# 34 "c:\\mingw\\include\\stdlib.h" 3
       
# 35 "c:\\mingw\\include\\stdlib.h" 3
# 49 "c:\\mingw\\include\\stdlib.h" 3
# 1 "c:\\mingw\\include\\_mingw.h" 1 3
# 55 "c:\\mingw\\include\\_mingw.h" 3
       
# 56 "c:\\mingw\\include\\_mingw.h" 3
# 66 "c:\\mingw\\include\\_mingw.h" 3
# 1 "c:\\mingw\\include\\msvcrtver.h" 1 3
# 35 "c:\\mingw\\include\\msvcrtver.h" 3
       
# 36 "c:\\mingw\\include\\msvcrtver.h" 3
# 67 "c:\\mingw\\include\\_mingw.h" 2 3






# 1 "c:\\mingw\\include\\w32api.h" 1 3
# 35 "c:\\mingw\\include\\w32api.h" 3
       
# 36 "c:\\mingw\\include\\w32api.h" 3
# 59 "c:\\mingw\\include\\w32api.h" 3
# 1 "c:\\mingw\\include\\sdkddkver.h" 1 3
# 35 "c:\\mingw\\include\\sdkddkver.h" 3
       
# 36 "c:\\mingw\\include\\sdkddkver.h" 3
# 60 "c:\\mingw\\include\\w32api.h" 2 3
# 74 "c:\\mingw\\include\\_mingw.h" 2 3
# 50 "c:\\mingw\\include\\stdlib.h" 2 3





# 1 "c:\\mingw\\lib\\gcc\\mingw32\\5.3.0\\include\\stddef.h" 1 3 4
# 216 "c:\\mingw\\lib\\gcc\\mingw32\\5.3.0\\include\\stddef.h" 3 4

# 216 "c:\\mingw\\lib\\gcc\\mingw32\\5.3.0\\include\\stddef.h" 3 4
typedef unsigned int size_t;
# 328 "c:\\mingw\\lib\\gcc\\mingw32\\5.3.0\\include\\stddef.h" 3 4
typedef short unsigned int wchar_t;
# 56 "c:\\mingw\\include\\stdlib.h" 2 3
# 90 "c:\\mingw\\include\\stdlib.h" 3

# 99 "c:\\mingw\\include\\stdlib.h" 3
extern int _argc;
extern char **_argv;




extern __attribute__((__cdecl__)) __attribute__((__nothrow__)) int *__p___argc(void);
extern __attribute__((__cdecl__)) __attribute__((__nothrow__)) char ***__p___argv(void);
extern __attribute__((__cdecl__)) __attribute__((__nothrow__)) wchar_t ***__p___wargv(void);
# 142 "c:\\mingw\\include\\stdlib.h" 3
   extern __attribute__((__dllimport__)) int __mb_cur_max;
# 166 "c:\\mingw\\include\\stdlib.h" 3
 __attribute__((__cdecl__)) __attribute__((__nothrow__)) int *_errno(void);


 __attribute__((__cdecl__)) __attribute__((__nothrow__)) int *__doserrno(void);







extern __attribute__((__cdecl__)) __attribute__((__nothrow__)) char ***__p__environ(void);

extern __attribute__((__cdecl__)) __attribute__((__nothrow__)) wchar_t ***__p__wenviron(void);
# 202 "c:\\mingw\\include\\stdlib.h" 3
extern __attribute__((__dllimport__)) int _sys_nerr;
# 227 "c:\\mingw\\include\\stdlib.h" 3
extern __attribute__((__dllimport__)) char *_sys_errlist[];
# 238 "c:\\mingw\\include\\stdlib.h" 3
extern __attribute__((__cdecl__)) __attribute__((__nothrow__)) unsigned int *__p__osver(void);
extern __attribute__((__cdecl__)) __attribute__((__nothrow__)) unsigned int *__p__winver(void);
extern __attribute__((__cdecl__)) __attribute__((__nothrow__)) unsigned int *__p__winmajor(void);
extern __attribute__((__cdecl__)) __attribute__((__nothrow__)) unsigned int *__p__winminor(void);
# 250 "c:\\mingw\\include\\stdlib.h" 3
extern __attribute__((__dllimport__)) unsigned int _osver;
extern __attribute__((__dllimport__)) unsigned int _winver;
extern __attribute__((__dllimport__)) unsigned int _winmajor;
extern __attribute__((__dllimport__)) unsigned int _winminor;
# 289 "c:\\mingw\\include\\stdlib.h" 3
 __attribute__((__cdecl__)) __attribute__((__nothrow__)) char **__p__pgmptr(void);


 __attribute__((__cdecl__)) __attribute__((__nothrow__)) wchar_t **__p__wpgmptr(void);
# 325 "c:\\mingw\\include\\stdlib.h" 3
extern __attribute__((__dllimport__)) int _fmode;
# 335 "c:\\mingw\\include\\stdlib.h" 3
 __attribute__((__cdecl__)) __attribute__((__nothrow__)) int atoi (const char *);
 __attribute__((__cdecl__)) __attribute__((__nothrow__)) long atol (const char *);

 __attribute__((__cdecl__)) __attribute__((__nothrow__)) double strtod (const char *, char **);
 __attribute__((__cdecl__)) __attribute__((__nothrow__)) double atof (const char *);


 __attribute__((__cdecl__)) __attribute__((__nothrow__)) double _wtof (const wchar_t *);
 __attribute__((__cdecl__)) __attribute__((__nothrow__)) int _wtoi (const wchar_t *);
 __attribute__((__cdecl__)) __attribute__((__nothrow__)) long _wtol (const wchar_t *);
# 378 "c:\\mingw\\include\\stdlib.h" 3
__attribute__((__cdecl__)) __attribute__((__nothrow__))
float strtof (const char *__restrict__, char **__restrict__);

__attribute__((__cdecl__)) __attribute__((__nothrow__))
long double strtold (const char *__restrict__, char **__restrict__);


 __attribute__((__cdecl__)) __attribute__((__nothrow__)) long strtol (const char *, char **, int);
 __attribute__((__cdecl__)) __attribute__((__nothrow__)) unsigned long strtoul (const char *, char **, int);







 __attribute__((__cdecl__)) __attribute__((__nothrow__))
long wcstol (const wchar_t *, wchar_t **, int);

 __attribute__((__cdecl__)) __attribute__((__nothrow__))
unsigned long wcstoul (const wchar_t *, wchar_t **, int);

 __attribute__((__cdecl__)) __attribute__((__nothrow__)) double wcstod (const wchar_t *, wchar_t **);





__attribute__((__cdecl__)) __attribute__((__nothrow__))
float wcstof (const wchar_t *__restrict__, wchar_t **__restrict__);

__attribute__((__cdecl__)) __attribute__((__nothrow__))
long double wcstold (const wchar_t *__restrict__, wchar_t **__restrict__);
# 451 "c:\\mingw\\include\\stdlib.h" 3
 __attribute__((__cdecl__)) __attribute__((__nothrow__)) wchar_t *_wgetenv (const wchar_t *);
 __attribute__((__cdecl__)) __attribute__((__nothrow__)) int _wputenv (const wchar_t *);

 __attribute__((__cdecl__)) __attribute__((__nothrow__))
void _wsearchenv (const wchar_t *, const wchar_t *, wchar_t *);

 __attribute__((__cdecl__)) __attribute__((__nothrow__)) int _wsystem (const wchar_t *);

 __attribute__((__cdecl__)) __attribute__((__nothrow__))
void _wmakepath (wchar_t *, const wchar_t *, const wchar_t *, const wchar_t *,
    const wchar_t *
  );

 __attribute__((__cdecl__)) __attribute__((__nothrow__))
void _wsplitpath (const wchar_t *, wchar_t *, wchar_t *, wchar_t *, wchar_t *);

 __attribute__((__cdecl__)) __attribute__((__nothrow__))
wchar_t *_wfullpath (wchar_t *, const wchar_t *, size_t);





 __attribute__((__cdecl__)) __attribute__((__nothrow__)) size_t wcstombs (char *, const wchar_t *, size_t);
 __attribute__((__cdecl__)) __attribute__((__nothrow__)) int wctomb (char *, wchar_t);

 __attribute__((__cdecl__)) __attribute__((__nothrow__)) int mblen (const char *, size_t);
 __attribute__((__cdecl__)) __attribute__((__nothrow__)) size_t mbstowcs (wchar_t *, const char *, size_t);
 __attribute__((__cdecl__)) __attribute__((__nothrow__)) int mbtowc (wchar_t *, const char *, size_t);

 __attribute__((__cdecl__)) __attribute__((__nothrow__)) int rand (void);
 __attribute__((__cdecl__)) __attribute__((__nothrow__)) void srand (unsigned int);

 __attribute__((__cdecl__)) __attribute__((__nothrow__)) void *calloc (size_t, size_t) __attribute__((__malloc__));
 __attribute__((__cdecl__)) __attribute__((__nothrow__)) void *malloc (size_t) __attribute__((__malloc__));
 __attribute__((__cdecl__)) __attribute__((__nothrow__)) void *realloc (void *, size_t);
 __attribute__((__cdecl__)) __attribute__((__nothrow__)) void free (void *);
 __attribute__((__cdecl__)) __attribute__((__nothrow__)) void abort (void) __attribute__((__noreturn__));
 __attribute__((__cdecl__)) __attribute__((__nothrow__)) void exit (int) __attribute__((__noreturn__));



int __attribute__((__cdecl__)) __attribute__((__nothrow__)) atexit (void (*)(void));

 __attribute__((__cdecl__)) __attribute__((__nothrow__)) int system (const char *);
 __attribute__((__cdecl__)) __attribute__((__nothrow__)) char *getenv (const char *);






 __attribute__((__cdecl__)) void *bsearch
(const void *, const void *, size_t, size_t, int (*)(const void *, const void *));

 __attribute__((__cdecl__)) void qsort
(void *, size_t, size_t, int (*)(const void *, const void *));

 __attribute__((__cdecl__)) __attribute__((__nothrow__)) int abs (int) __attribute__((__const__));
 __attribute__((__cdecl__)) __attribute__((__nothrow__)) long labs (long) __attribute__((__const__));
# 519 "c:\\mingw\\include\\stdlib.h" 3
typedef struct { int quot, rem; } div_t;
typedef struct { long quot, rem; } ldiv_t;

 __attribute__((__cdecl__)) __attribute__((__nothrow__)) div_t div (int, int) __attribute__((__const__));
 __attribute__((__cdecl__)) __attribute__((__nothrow__)) ldiv_t ldiv (long, long) __attribute__((__const__));






 __attribute__((__cdecl__)) __attribute__((__nothrow__)) void _exit (int) __attribute__((__noreturn__));





 __attribute__((__cdecl__)) __attribute__((__nothrow__)) long long _atoi64 (const char *);
# 545 "c:\\mingw\\include\\stdlib.h" 3
 __attribute__((__cdecl__)) __attribute__((__nothrow__)) void _beep (unsigned int, unsigned int) __attribute__((__deprecated__));

 __attribute__((__cdecl__)) __attribute__((__nothrow__)) void _seterrormode (int) __attribute__((__deprecated__));
 __attribute__((__cdecl__)) __attribute__((__nothrow__)) void _sleep (unsigned long) __attribute__((__deprecated__));



typedef int (* _onexit_t)(void);
__attribute__((__cdecl__)) __attribute__((__nothrow__)) _onexit_t _onexit( _onexit_t );

 __attribute__((__cdecl__)) __attribute__((__nothrow__)) int _putenv (const char *);
 __attribute__((__cdecl__)) __attribute__((__nothrow__))
void _searchenv (const char *, const char *, char *);

 __attribute__((__cdecl__)) __attribute__((__nothrow__)) char *_ecvt (double, int, int *, int *);
 __attribute__((__cdecl__)) __attribute__((__nothrow__)) char *_fcvt (double, int, int *, int *);
 __attribute__((__cdecl__)) __attribute__((__nothrow__)) char *_gcvt (double, int, char *);

 __attribute__((__cdecl__)) __attribute__((__nothrow__))
void _makepath (char *, const char *, const char *, const char *, const char *);

 __attribute__((__cdecl__)) __attribute__((__nothrow__))
void _splitpath (const char *, char *, char *, char *, char *);

 __attribute__((__cdecl__)) __attribute__((__nothrow__)) char *_fullpath (char*, const char*, size_t);

 __attribute__((__cdecl__)) __attribute__((__nothrow__)) char *_itoa (int, char *, int);
 __attribute__((__cdecl__)) __attribute__((__nothrow__)) char *_ltoa (long, char *, int);
 __attribute__((__cdecl__)) __attribute__((__nothrow__)) char *_ultoa(unsigned long, char *, int);
 __attribute__((__cdecl__)) __attribute__((__nothrow__)) wchar_t *_itow (int, wchar_t *, int);
 __attribute__((__cdecl__)) __attribute__((__nothrow__)) wchar_t *_ltow (long, wchar_t *, int);
 __attribute__((__cdecl__)) __attribute__((__nothrow__)) wchar_t *_ultow (unsigned long, wchar_t *, int);


 __attribute__((__cdecl__)) __attribute__((__nothrow__)) char* _i64toa (long long, char *, int);
 __attribute__((__cdecl__)) __attribute__((__nothrow__)) char* _ui64toa (unsigned long long, char *, int);
 __attribute__((__cdecl__)) __attribute__((__nothrow__)) long long _wtoi64 (const wchar_t *);
 __attribute__((__cdecl__)) __attribute__((__nothrow__)) wchar_t* _i64tow (long long, wchar_t *, int);
 __attribute__((__cdecl__)) __attribute__((__nothrow__)) wchar_t* _ui64tow (unsigned long long, wchar_t *, int);

 __attribute__((__cdecl__)) __attribute__((__nothrow__)) unsigned int (_rotl)(unsigned int, int) __attribute__((__const__));
 __attribute__((__cdecl__)) __attribute__((__nothrow__)) unsigned int (_rotr)(unsigned int, int) __attribute__((__const__));
 __attribute__((__cdecl__)) __attribute__((__nothrow__)) unsigned long (_lrotl)(unsigned long, int) __attribute__((__const__));
 __attribute__((__cdecl__)) __attribute__((__nothrow__)) unsigned long (_lrotr)(unsigned long, int) __attribute__((__const__));

 __attribute__((__cdecl__)) __attribute__((__nothrow__)) int _set_error_mode (int);
# 628 "c:\\mingw\\include\\stdlib.h" 3
 __attribute__((__cdecl__)) __attribute__((__nothrow__)) int putenv (const char*);
 __attribute__((__cdecl__)) __attribute__((__nothrow__)) void searchenv (const char*, const char*, char*);

 __attribute__((__cdecl__)) __attribute__((__nothrow__)) char* itoa (int, char*, int);
 __attribute__((__cdecl__)) __attribute__((__nothrow__)) char* ltoa (long, char*, int);


 __attribute__((__cdecl__)) __attribute__((__nothrow__)) char* ecvt (double, int, int*, int*);
 __attribute__((__cdecl__)) __attribute__((__nothrow__)) char* fcvt (double, int, int*, int*);
 __attribute__((__cdecl__)) __attribute__((__nothrow__)) char* gcvt (double, int, char*);
# 649 "c:\\mingw\\include\\stdlib.h" 3
__attribute__((__cdecl__)) __attribute__((__nothrow__)) void _Exit(int) __attribute__((__noreturn__));






typedef struct { long long quot, rem; } lldiv_t;
__attribute__((__cdecl__)) __attribute__((__nothrow__)) lldiv_t lldiv (long long, long long) __attribute__((__const__));

__attribute__((__cdecl__)) __attribute__((__nothrow__)) long long llabs (long long);
# 670 "c:\\mingw\\include\\stdlib.h" 3
__attribute__((__cdecl__)) __attribute__((__nothrow__))
long long strtoll (const char *__restrict__, char **__restrict, int);

__attribute__((__cdecl__)) __attribute__((__nothrow__))
unsigned long long strtoull (const char *__restrict__, char **__restrict__, int);





__attribute__((__cdecl__)) __attribute__((__nothrow__)) long long atoll (const char *);
# 726 "c:\\mingw\\include\\stdlib.h" 3
__attribute__((__cdecl__)) __attribute__((__nothrow__)) __attribute__((__deprecated__)) long long wtoll (const wchar_t *);
__attribute__((__cdecl__)) __attribute__((__nothrow__)) __attribute__((__deprecated__)) char *lltoa (long long, char *, int);
__attribute__((__cdecl__)) __attribute__((__nothrow__)) __attribute__((__deprecated__)) char *ulltoa (unsigned long long , char *, int);
__attribute__((__cdecl__)) __attribute__((__nothrow__)) __attribute__((__deprecated__)) wchar_t *lltow (long long, wchar_t *, int);
__attribute__((__cdecl__)) __attribute__((__nothrow__)) __attribute__((__deprecated__)) wchar_t *ulltow (unsigned long long, wchar_t *, int);
# 766 "c:\\mingw\\include\\stdlib.h" 3
__attribute__((__cdecl__)) __attribute__((__nothrow__)) int mkstemp (char *);
__attribute__((__cdecl__)) __attribute__((__nothrow__)) int __mingw_mkstemp (int, char *);
# 808 "c:\\mingw\\include\\stdlib.h" 3
extern inline __attribute__((__gnu_inline__)) __attribute__((__always_inline__))
__attribute__((__cdecl__)) __attribute__((__nothrow__)) int mkstemp (char *__filename_template)
{ return __mingw_mkstemp( 0, __filename_template ); }
# 819 "c:\\mingw\\include\\stdlib.h" 3
__attribute__((__cdecl__)) __attribute__((__nothrow__)) char *mkdtemp (char *);
__attribute__((__cdecl__)) __attribute__((__nothrow__)) char *__mingw_mkdtemp (char *);

extern inline __attribute__((__gnu_inline__)) __attribute__((__always_inline__))
__attribute__((__cdecl__)) __attribute__((__nothrow__)) char *mkdtemp (char *__dirname_template)
{ return __mingw_mkdtemp( __dirname_template ); }





# 5 "main.c" 2
# 1 "c:\\mingw\\include\\stdio.h" 1 3
# 38 "c:\\mingw\\include\\stdio.h" 3
       
# 39 "c:\\mingw\\include\\stdio.h" 3
# 69 "c:\\mingw\\include\\stdio.h" 3
# 1 "c:\\mingw\\lib\\gcc\\mingw32\\5.3.0\\include\\stddef.h" 1 3 4
# 357 "c:\\mingw\\lib\\gcc\\mingw32\\5.3.0\\include\\stddef.h" 3 4
typedef short unsigned int wint_t;
# 70 "c:\\mingw\\include\\stdio.h" 2 3
# 94 "c:\\mingw\\include\\stdio.h" 3
# 1 "c:\\mingw\\include\\sys/types.h" 1 3
# 34 "c:\\mingw\\include\\sys/types.h" 3
       
# 35 "c:\\mingw\\include\\sys/types.h" 3
# 62 "c:\\mingw\\include\\sys/types.h" 3
  typedef long __off32_t;




  typedef __off32_t _off_t;







  typedef _off_t off_t;
# 91 "c:\\mingw\\include\\sys/types.h" 3
  typedef long long __off64_t;






  typedef __off64_t off64_t;
# 115 "c:\\mingw\\include\\sys/types.h" 3
  typedef int _ssize_t;







  typedef _ssize_t ssize_t;
# 95 "c:\\mingw\\include\\stdio.h" 2 3







# 1 "c:\\mingw\\lib\\gcc\\mingw32\\5.3.0\\include\\stdarg.h" 1 3 4
# 40 "c:\\mingw\\lib\\gcc\\mingw32\\5.3.0\\include\\stdarg.h" 3 4
typedef __builtin_va_list __gnuc_va_list;
# 103 "c:\\mingw\\include\\stdio.h" 2 3
# 210 "c:\\mingw\\include\\stdio.h" 3
typedef struct _iobuf
{
  char *_ptr;
  int _cnt;
  char *_base;
  int _flag;
  int _file;
  int _charbuf;
  int _bufsiz;
  char *_tmpfname;
} FILE;
# 239 "c:\\mingw\\include\\stdio.h" 3
extern __attribute__((__dllimport__)) FILE _iob[];
# 252 "c:\\mingw\\include\\stdio.h" 3








 __attribute__((__cdecl__)) __attribute__((__nothrow__)) FILE * fopen (const char *, const char *);
 __attribute__((__cdecl__)) __attribute__((__nothrow__)) FILE * freopen (const char *, const char *, FILE *);
 __attribute__((__cdecl__)) __attribute__((__nothrow__)) int fflush (FILE *);
 __attribute__((__cdecl__)) __attribute__((__nothrow__)) int fclose (FILE *);






 __attribute__((__cdecl__)) __attribute__((__nothrow__)) int remove (const char *);
 __attribute__((__cdecl__)) __attribute__((__nothrow__)) int rename (const char *, const char *);
 __attribute__((__cdecl__)) __attribute__((__nothrow__)) FILE * tmpfile (void);
 __attribute__((__cdecl__)) __attribute__((__nothrow__)) char * tmpnam (char *);


 __attribute__((__cdecl__)) __attribute__((__nothrow__)) char *_tempnam (const char *, const char *);
 __attribute__((__cdecl__)) __attribute__((__nothrow__)) int _rmtmp (void);
 __attribute__((__cdecl__)) __attribute__((__nothrow__)) int _unlink (const char *);
# 289 "c:\\mingw\\include\\stdio.h" 3
 __attribute__((__cdecl__)) __attribute__((__nothrow__)) char * tempnam (const char *, const char *);
 __attribute__((__cdecl__)) __attribute__((__nothrow__)) int rmtmp (void);
 __attribute__((__cdecl__)) __attribute__((__nothrow__)) int unlink (const char *);



 __attribute__((__cdecl__)) __attribute__((__nothrow__)) int setvbuf (FILE *, char *, int, size_t);
 __attribute__((__cdecl__)) __attribute__((__nothrow__)) void setbuf (FILE *, char *);
# 306 "c:\\mingw\\include\\stdio.h" 3
extern int __attribute__((__cdecl__)) __attribute__((__nothrow__)) __mingw_fprintf(FILE*, const char*, ...);
extern int __attribute__((__cdecl__)) __attribute__((__nothrow__)) __mingw_printf(const char*, ...);
extern int __attribute__((__cdecl__)) __attribute__((__nothrow__)) __mingw_sprintf(char*, const char*, ...);
extern int __attribute__((__cdecl__)) __attribute__((__nothrow__)) __mingw_snprintf(char*, size_t, const char*, ...);
extern int __attribute__((__cdecl__)) __attribute__((__nothrow__)) __mingw_vfprintf(FILE*, const char*, __builtin_va_list);
extern int __attribute__((__cdecl__)) __attribute__((__nothrow__)) __mingw_vprintf(const char*, __builtin_va_list);
extern int __attribute__((__cdecl__)) __attribute__((__nothrow__)) __mingw_vsprintf(char*, const char*, __builtin_va_list);
extern int __attribute__((__cdecl__)) __attribute__((__nothrow__)) __mingw_vsnprintf(char*, size_t, const char*, __builtin_va_list);
# 340 "c:\\mingw\\include\\stdio.h" 3
extern unsigned int _mingw_output_format_control( unsigned int, unsigned int );
# 417 "c:\\mingw\\include\\stdio.h" 3
 __attribute__((__cdecl__)) __attribute__((__nothrow__)) int fprintf (FILE *, const char *, ...);
 __attribute__((__cdecl__)) __attribute__((__nothrow__)) int printf (const char *, ...);
 __attribute__((__cdecl__)) __attribute__((__nothrow__)) int sprintf (char *, const char *, ...);
 __attribute__((__cdecl__)) __attribute__((__nothrow__)) int vfprintf (FILE *, const char *, __builtin_va_list);
 __attribute__((__cdecl__)) __attribute__((__nothrow__)) int vprintf (const char *, __builtin_va_list);
 __attribute__((__cdecl__)) __attribute__((__nothrow__)) int vsprintf (char *, const char *, __builtin_va_list);
# 431 "c:\\mingw\\include\\stdio.h" 3
 int __attribute__((__cdecl__)) __attribute__((__nothrow__)) __msvcrt_fprintf(FILE *, const char *, ...);
 int __attribute__((__cdecl__)) __attribute__((__nothrow__)) __msvcrt_printf(const char *, ...);
 int __attribute__((__cdecl__)) __attribute__((__nothrow__)) __msvcrt_sprintf(char *, const char *, ...);
 int __attribute__((__cdecl__)) __attribute__((__nothrow__)) __msvcrt_vfprintf(FILE *, const char *, __builtin_va_list);
 int __attribute__((__cdecl__)) __attribute__((__nothrow__)) __msvcrt_vprintf(const char *, __builtin_va_list);
 int __attribute__((__cdecl__)) __attribute__((__nothrow__)) __msvcrt_vsprintf(char *, const char *, __builtin_va_list);





 __attribute__((__cdecl__)) __attribute__((__nothrow__)) int _snprintf (char *, size_t, const char *, ...);
 __attribute__((__cdecl__)) __attribute__((__nothrow__)) int _vsnprintf (char *, size_t, const char *, __builtin_va_list);
 __attribute__((__cdecl__)) __attribute__((__nothrow__)) int _vscprintf (const char *, __builtin_va_list);
# 453 "c:\\mingw\\include\\stdio.h" 3
__attribute__((__cdecl__)) __attribute__((__nothrow__)) int snprintf (char *, size_t, const char *, ...);
__attribute__((__cdecl__)) __attribute__((__nothrow__)) int vsnprintf (char *, size_t, const char *, __builtin_va_list);

__attribute__((__cdecl__)) __attribute__((__nothrow__)) int vscanf (const char * __restrict__, __builtin_va_list);

__attribute__((__cdecl__)) __attribute__((__nothrow__))
int vfscanf (FILE * __restrict__, const char * __restrict__, __builtin_va_list);

__attribute__((__cdecl__)) __attribute__((__nothrow__))
int vsscanf (const char * __restrict__, const char * __restrict__, __builtin_va_list);
# 594 "c:\\mingw\\include\\stdio.h" 3
 __attribute__((__cdecl__)) __attribute__((__nothrow__)) int fscanf (FILE *, const char *, ...);
 __attribute__((__cdecl__)) __attribute__((__nothrow__)) int scanf (const char *, ...);
 __attribute__((__cdecl__)) __attribute__((__nothrow__)) int sscanf (const char *, const char *, ...);



 __attribute__((__cdecl__)) __attribute__((__nothrow__)) int fgetc (FILE *);
 __attribute__((__cdecl__)) __attribute__((__nothrow__)) char * fgets (char *, int, FILE *);
 __attribute__((__cdecl__)) __attribute__((__nothrow__)) int fputc (int, FILE *);
 __attribute__((__cdecl__)) __attribute__((__nothrow__)) int fputs (const char *, FILE *);
 __attribute__((__cdecl__)) __attribute__((__nothrow__)) char * gets (char *);
 __attribute__((__cdecl__)) __attribute__((__nothrow__)) int puts (const char *);
 __attribute__((__cdecl__)) __attribute__((__nothrow__)) int ungetc (int, FILE *);
# 615 "c:\\mingw\\include\\stdio.h" 3
 __attribute__((__cdecl__)) __attribute__((__nothrow__)) int _filbuf (FILE *);
 __attribute__((__cdecl__)) __attribute__((__nothrow__)) int _flsbuf (int, FILE *);



extern inline __attribute__((__gnu_inline__)) __attribute__((__cdecl__)) __attribute__((__nothrow__)) int getc (FILE *);
extern inline __attribute__((__gnu_inline__)) __attribute__((__cdecl__)) __attribute__((__nothrow__)) int getc (FILE * __F)
{
  return (--__F->_cnt >= 0)
    ? (int) (unsigned char) *__F->_ptr++
    : _filbuf (__F);
}

extern inline __attribute__((__gnu_inline__)) __attribute__((__cdecl__)) __attribute__((__nothrow__)) int putc (int, FILE *);
extern inline __attribute__((__gnu_inline__)) __attribute__((__cdecl__)) __attribute__((__nothrow__)) int putc (int __c, FILE * __F)
{
  return (--__F->_cnt >= 0)
    ? (int) (unsigned char) (*__F->_ptr++ = (char)__c)
    : _flsbuf (__c, __F);
}

extern inline __attribute__((__gnu_inline__)) __attribute__((__cdecl__)) __attribute__((__nothrow__)) int getchar (void);
extern inline __attribute__((__gnu_inline__)) __attribute__((__cdecl__)) __attribute__((__nothrow__)) int getchar (void)
{
  return (--(&_iob[0])->_cnt >= 0)
    ? (int) (unsigned char) *(&_iob[0])->_ptr++
    : _filbuf ((&_iob[0]));
}

extern inline __attribute__((__gnu_inline__)) __attribute__((__cdecl__)) __attribute__((__nothrow__)) int putchar(int);
extern inline __attribute__((__gnu_inline__)) __attribute__((__cdecl__)) __attribute__((__nothrow__)) int putchar(int __c)
{
  return (--(&_iob[1])->_cnt >= 0)
    ? (int) (unsigned char) (*(&_iob[1])->_ptr++ = (char)__c)
    : _flsbuf (__c, (&_iob[1]));}
# 662 "c:\\mingw\\include\\stdio.h" 3
 __attribute__((__cdecl__)) __attribute__((__nothrow__)) size_t fread (void *, size_t, size_t, FILE *);
 __attribute__((__cdecl__)) __attribute__((__nothrow__)) size_t fwrite (const void *, size_t, size_t, FILE *);



 __attribute__((__cdecl__)) __attribute__((__nothrow__)) int fseek (FILE *, long, int);
 __attribute__((__cdecl__)) __attribute__((__nothrow__)) long ftell (FILE *);
 __attribute__((__cdecl__)) __attribute__((__nothrow__)) void rewind (FILE *);
# 715 "c:\\mingw\\include\\stdio.h" 3
typedef long long fpos_t;




 __attribute__((__cdecl__)) __attribute__((__nothrow__)) int fgetpos (FILE *, fpos_t *);
 __attribute__((__cdecl__)) __attribute__((__nothrow__)) int fsetpos (FILE *, const fpos_t *);



 __attribute__((__cdecl__)) __attribute__((__nothrow__)) int feof (FILE *);
 __attribute__((__cdecl__)) __attribute__((__nothrow__)) int ferror (FILE *);
# 736 "c:\\mingw\\include\\stdio.h" 3
 __attribute__((__cdecl__)) __attribute__((__nothrow__)) void clearerr (FILE *);
 __attribute__((__cdecl__)) __attribute__((__nothrow__)) void perror (const char *);






 __attribute__((__cdecl__)) __attribute__((__nothrow__)) FILE * _popen (const char *, const char *);
 __attribute__((__cdecl__)) __attribute__((__nothrow__)) int _pclose (FILE *);


 __attribute__((__cdecl__)) __attribute__((__nothrow__)) FILE * popen (const char *, const char *);
 __attribute__((__cdecl__)) __attribute__((__nothrow__)) int pclose (FILE *);




 __attribute__((__cdecl__)) __attribute__((__nothrow__)) int _flushall (void);
 __attribute__((__cdecl__)) __attribute__((__nothrow__)) int _fgetchar (void);
 __attribute__((__cdecl__)) __attribute__((__nothrow__)) int _fputchar (int);
 __attribute__((__cdecl__)) __attribute__((__nothrow__)) FILE * _fdopen (int, const char *);
 __attribute__((__cdecl__)) __attribute__((__nothrow__)) int _fileno (FILE *);
 __attribute__((__cdecl__)) __attribute__((__nothrow__)) int _fcloseall (void);
 __attribute__((__cdecl__)) __attribute__((__nothrow__)) FILE * _fsopen (const char *, const char *, int);

 __attribute__((__cdecl__)) __attribute__((__nothrow__)) int _getmaxstdio (void);
 __attribute__((__cdecl__)) __attribute__((__nothrow__)) int _setmaxstdio (int);
# 787 "c:\\mingw\\include\\stdio.h" 3
unsigned int __attribute__((__cdecl__)) __mingw_get_output_format (void);
unsigned int __attribute__((__cdecl__)) __mingw_set_output_format (unsigned int);







int __attribute__((__cdecl__)) __mingw_get_printf_count_output (void);
int __attribute__((__cdecl__)) __mingw_set_printf_count_output (int);
# 813 "c:\\mingw\\include\\stdio.h" 3
extern inline __attribute__((__gnu_inline__)) __attribute__((__always_inline__)) unsigned int __attribute__((__cdecl__)) _get_output_format (void)
{ return __mingw_get_output_format (); }

extern inline __attribute__((__gnu_inline__)) __attribute__((__always_inline__)) unsigned int __attribute__((__cdecl__)) _set_output_format (unsigned int __style)
{ return __mingw_set_output_format (__style); }
# 838 "c:\\mingw\\include\\stdio.h" 3
extern inline __attribute__((__gnu_inline__)) __attribute__((__always_inline__)) int __attribute__((__cdecl__)) _get_printf_count_output (void)
{ return 0 ? 1 : __mingw_get_printf_count_output (); }

extern inline __attribute__((__gnu_inline__)) __attribute__((__always_inline__)) int __attribute__((__cdecl__)) _set_printf_count_output (int __mode)
{ return 0 ? 1 : __mingw_set_printf_count_output (__mode); }



 __attribute__((__cdecl__)) __attribute__((__nothrow__)) int fgetchar (void);
 __attribute__((__cdecl__)) __attribute__((__nothrow__)) int fputchar (int);
 __attribute__((__cdecl__)) __attribute__((__nothrow__)) FILE * fdopen (int, const char *);
 __attribute__((__cdecl__)) __attribute__((__nothrow__)) int fileno (FILE *);
# 858 "c:\\mingw\\include\\stdio.h" 3
extern inline __attribute__((__gnu_inline__)) __attribute__((__always_inline__)) FILE * __attribute__((__cdecl__)) __attribute__((__nothrow__)) fopen64 (const char *, const char *);
extern inline __attribute__((__gnu_inline__)) __attribute__((__always_inline__))
FILE * __attribute__((__cdecl__)) __attribute__((__nothrow__)) fopen64 (const char * filename, const char * mode)
{ return fopen (filename, mode); }

int __attribute__((__cdecl__)) __attribute__((__nothrow__)) fseeko64 (FILE *, __off64_t, int);






extern inline __attribute__((__gnu_inline__)) __attribute__((__always_inline__)) __off64_t __attribute__((__cdecl__)) __attribute__((__nothrow__)) ftello64 (FILE *);
extern inline __attribute__((__gnu_inline__)) __attribute__((__always_inline__))
__off64_t __attribute__((__cdecl__)) __attribute__((__nothrow__)) ftello64 (FILE * stream)
{ fpos_t __pos; return (fgetpos(stream, &__pos)) ? -1LL : (__off64_t)(__pos); }
# 886 "c:\\mingw\\include\\stdio.h" 3
 __attribute__((__cdecl__)) __attribute__((__nothrow__)) int fwprintf (FILE *, const wchar_t *, ...);
 __attribute__((__cdecl__)) __attribute__((__nothrow__)) int wprintf (const wchar_t *, ...);
 __attribute__((__cdecl__)) __attribute__((__nothrow__)) int vfwprintf (FILE *, const wchar_t *, __builtin_va_list);
 __attribute__((__cdecl__)) __attribute__((__nothrow__)) int vwprintf (const wchar_t *, __builtin_va_list);
 __attribute__((__cdecl__)) __attribute__((__nothrow__)) int _snwprintf (wchar_t *, size_t, const wchar_t *, ...);
 __attribute__((__cdecl__)) __attribute__((__nothrow__)) int _vscwprintf (const wchar_t *, __builtin_va_list);
 __attribute__((__cdecl__)) __attribute__((__nothrow__)) int _vsnwprintf (wchar_t *, size_t, const wchar_t *, __builtin_va_list);
 __attribute__((__cdecl__)) __attribute__((__nothrow__)) int fwscanf (FILE *, const wchar_t *, ...);
 __attribute__((__cdecl__)) __attribute__((__nothrow__)) int wscanf (const wchar_t *, ...);
 __attribute__((__cdecl__)) __attribute__((__nothrow__)) int swscanf (const wchar_t *, const wchar_t *, ...);
 __attribute__((__cdecl__)) __attribute__((__nothrow__)) wint_t fgetwc (FILE *);
 __attribute__((__cdecl__)) __attribute__((__nothrow__)) wint_t fputwc (wchar_t, FILE *);
 __attribute__((__cdecl__)) __attribute__((__nothrow__)) wint_t ungetwc (wchar_t, FILE *);




 __attribute__((__cdecl__)) __attribute__((__nothrow__)) int swprintf (wchar_t *, const wchar_t *, ...);
 __attribute__((__cdecl__)) __attribute__((__nothrow__)) int vswprintf (wchar_t *, const wchar_t *, __builtin_va_list);



 __attribute__((__cdecl__)) __attribute__((__nothrow__)) wchar_t * fgetws (wchar_t *, int, FILE *);
 __attribute__((__cdecl__)) __attribute__((__nothrow__)) int fputws (const wchar_t *, FILE *);
 __attribute__((__cdecl__)) __attribute__((__nothrow__)) wint_t getwc (FILE *);
 __attribute__((__cdecl__)) __attribute__((__nothrow__)) wint_t getwchar (void);
 __attribute__((__cdecl__)) __attribute__((__nothrow__)) wint_t putwc (wint_t, FILE *);
 __attribute__((__cdecl__)) __attribute__((__nothrow__)) wint_t putwchar (wint_t);


 __attribute__((__cdecl__)) __attribute__((__nothrow__)) wchar_t * _getws (wchar_t *);
 __attribute__((__cdecl__)) __attribute__((__nothrow__)) int _putws (const wchar_t *);
 __attribute__((__cdecl__)) __attribute__((__nothrow__)) FILE * _wfdopen(int, const wchar_t *);
 __attribute__((__cdecl__)) __attribute__((__nothrow__)) FILE * _wfopen (const wchar_t *, const wchar_t *);
 __attribute__((__cdecl__)) __attribute__((__nothrow__)) FILE * _wfreopen (const wchar_t *, const wchar_t *, FILE *);
 __attribute__((__cdecl__)) __attribute__((__nothrow__)) FILE * _wfsopen (const wchar_t *, const wchar_t *, int);
 __attribute__((__cdecl__)) __attribute__((__nothrow__)) wchar_t * _wtmpnam (wchar_t *);
 __attribute__((__cdecl__)) __attribute__((__nothrow__)) wchar_t * _wtempnam (const wchar_t *, const wchar_t *);
 __attribute__((__cdecl__)) __attribute__((__nothrow__)) int _wrename (const wchar_t *, const wchar_t *);
 __attribute__((__cdecl__)) __attribute__((__nothrow__)) int _wremove (const wchar_t *);
 __attribute__((__cdecl__)) __attribute__((__nothrow__)) void _wperror (const wchar_t *);
 __attribute__((__cdecl__)) __attribute__((__nothrow__)) FILE * _wpopen (const wchar_t *, const wchar_t *);





__attribute__((__cdecl__)) __attribute__((__nothrow__)) int snwprintf (wchar_t *, size_t, const wchar_t *, ...);
__attribute__((__cdecl__)) __attribute__((__nothrow__)) int vsnwprintf (wchar_t *, size_t, const wchar_t *, __builtin_va_list);
# 943 "c:\\mingw\\include\\stdio.h" 3
__attribute__((__cdecl__)) __attribute__((__nothrow__)) int vwscanf (const wchar_t *__restrict__, __builtin_va_list);
__attribute__((__cdecl__)) __attribute__((__nothrow__))
int vfwscanf (FILE *__restrict__, const wchar_t *__restrict__, __builtin_va_list);
__attribute__((__cdecl__)) __attribute__((__nothrow__))
int vswscanf (const wchar_t *__restrict__, const wchar_t * __restrict__, __builtin_va_list);






 __attribute__((__cdecl__)) __attribute__((__nothrow__)) FILE * wpopen (const wchar_t *, const wchar_t *);




 __attribute__((__cdecl__)) __attribute__((__nothrow__)) wint_t _fgetwchar (void);
 __attribute__((__cdecl__)) __attribute__((__nothrow__)) wint_t _fputwchar (wint_t);
 __attribute__((__cdecl__)) __attribute__((__nothrow__)) int _getw (FILE *);
 __attribute__((__cdecl__)) __attribute__((__nothrow__)) int _putw (int, FILE *);




 __attribute__((__cdecl__)) __attribute__((__nothrow__)) wint_t fgetwchar (void);
 __attribute__((__cdecl__)) __attribute__((__nothrow__)) wint_t fputwchar (wint_t);
 __attribute__((__cdecl__)) __attribute__((__nothrow__)) int getw (FILE *);
 __attribute__((__cdecl__)) __attribute__((__nothrow__)) int putw (int, FILE *);





# 6 "main.c" 2
# 1 "c:\\mingw\\include\\time.h" 1 3
# 33 "c:\\mingw\\include\\time.h" 3
       
# 34 "c:\\mingw\\include\\time.h" 3
# 45 "c:\\mingw\\include\\time.h" 3
# 1 "c:\\mingw\\include\\sys\\types.h" 1 3
# 34 "c:\\mingw\\include\\sys\\types.h" 3
       
# 35 "c:\\mingw\\include\\sys\\types.h" 3
# 139 "c:\\mingw\\include\\sys\\types.h" 3
  typedef long __time32_t;
  typedef long long __time64_t;
# 149 "c:\\mingw\\include\\sys\\types.h" 3
   typedef __time32_t time_t;
# 46 "c:\\mingw\\include\\time.h" 2 3
# 102 "c:\\mingw\\include\\time.h" 3
struct timespec
{







  __time64_t tv_sec;
  long tv_nsec;
};


struct __mingw32_expanded_timespec
{





  union
  {



    __time64_t __tv64_sec;
    __time32_t __tv32_sec;
    time_t tv_sec;
  };
  long tv_nsec;
};
# 142 "c:\\mingw\\include\\time.h" 3


extern inline __attribute__((__gnu_inline__)) __attribute__((__always_inline__))







struct __mingw32_expanded_timespec *mingw_timespec( struct timespec *__tv )
{ return (struct __mingw32_expanded_timespec *)(__tv); }


# 165 "c:\\mingw\\include\\time.h" 3
# 1 "c:\\mingw\\lib\\gcc\\mingw32\\5.3.0\\include\\stddef.h" 1 3 4
# 166 "c:\\mingw\\include\\time.h" 2 3




typedef long clock_t;

struct tm
{




  int tm_sec;
  int tm_min;
  int tm_hour;
  int tm_mday;
  int tm_mon;
  int tm_year;
  int tm_wday;
  int tm_yday;
  int tm_isdst;
};



 __attribute__((__cdecl__)) __attribute__((__nothrow__)) clock_t clock (void);
# 201 "c:\\mingw\\include\\time.h" 3
 __attribute__((__cdecl__)) __attribute__((__nothrow__)) time_t time (time_t *);
 __attribute__((__cdecl__)) __attribute__((__nothrow__)) double difftime (time_t, time_t);
 __attribute__((__cdecl__)) __attribute__((__nothrow__)) time_t mktime (struct tm *);
# 215 "c:\\mingw\\include\\time.h" 3
 __attribute__((__cdecl__)) __attribute__((__nothrow__)) char *asctime (const struct tm *);





 __attribute__((__cdecl__)) __attribute__((__nothrow__)) char *ctime (const time_t *);
 __attribute__((__cdecl__)) __attribute__((__nothrow__)) struct tm *gmtime (const time_t *);
 __attribute__((__cdecl__)) __attribute__((__nothrow__)) struct tm *localtime (const time_t *);


 __attribute__((__cdecl__)) __attribute__((__nothrow__))
size_t strftime (char *, size_t, const char *, const struct tm *);


extern __attribute__((__cdecl__)) __attribute__((__nothrow__)) void _tzset (void);


extern __attribute__((__cdecl__)) __attribute__((__nothrow__)) void tzset (void);


 __attribute__((__cdecl__)) __attribute__((__nothrow__)) char *_strdate (char *);
 __attribute__((__cdecl__)) __attribute__((__nothrow__)) char *_strtime (char *);






 __attribute__((__cdecl__)) __attribute__((__nothrow__)) __time64_t _time64( __time64_t *);
 __attribute__((__cdecl__)) __attribute__((__nothrow__)) __time64_t _mktime64 (struct tm *);
 __attribute__((__cdecl__)) __attribute__((__nothrow__)) char *_ctime64 (const __time64_t *);
 __attribute__((__cdecl__)) __attribute__((__nothrow__)) struct tm *_gmtime64 (const __time64_t *);
 __attribute__((__cdecl__)) __attribute__((__nothrow__)) struct tm *_localtime64 (const __time64_t *);
# 331 "c:\\mingw\\include\\time.h" 3
extern __attribute__((__cdecl__)) __attribute__((__nothrow__)) int *__p__daylight (void);
extern __attribute__((__cdecl__)) __attribute__((__nothrow__)) long *__p__timezone (void);
extern __attribute__((__cdecl__)) __attribute__((__nothrow__)) char **__p__tzname (void);

extern __attribute__((__dllimport__)) int _daylight;
extern __attribute__((__dllimport__)) long _timezone;
extern __attribute__((__dllimport__)) char *_tzname[2];
# 368 "c:\\mingw\\include\\time.h" 3
extern __attribute__((__dllimport__)) int daylight;
extern __attribute__((__dllimport__)) long timezone;
extern __attribute__((__dllimport__)) char *tzname[2];
# 394 "c:\\mingw\\include\\time.h" 3
__attribute__((__cdecl__)) __attribute__((__nothrow__))
int nanosleep( const struct timespec *, struct timespec * );
# 415 "c:\\mingw\\include\\time.h" 3

# 427 "c:\\mingw\\include\\time.h" 3



 __attribute__((__cdecl__)) __attribute__((__nothrow__)) wchar_t *_wasctime (const struct tm *);
 __attribute__((__cdecl__)) __attribute__((__nothrow__)) wchar_t *_wstrdate (wchar_t *);
 __attribute__((__cdecl__)) __attribute__((__nothrow__)) wchar_t *_wstrtime (wchar_t *);






 __attribute__((__cdecl__)) __attribute__((__nothrow__)) wchar_t *_wctime64 (const __time64_t *);
# 453 "c:\\mingw\\include\\time.h" 3
 __attribute__((__cdecl__)) __attribute__((__nothrow__)) wchar_t *_wctime (const time_t *);
# 482 "c:\\mingw\\include\\time.h" 3
 __attribute__((__cdecl__)) __attribute__((__nothrow__))
size_t wcsftime (wchar_t *, size_t, const wchar_t *, const struct tm *);


# 7 "main.c" 2

# 1 "file.h" 1




# 4 "file.h"
extern int saveCount;
extern int loadCount;

void loadFromFile (char *file, int m[], int size);
void saveToFile (char *file, int m[], int size);
# 9 "main.c" 2

int saveCount = 0;
int loadCount = 0;

void fillArray ( int size, int m[]);
void printArray ( int size, int m[]);
int main ()
{
# 42 "main.c"
    int m1[100], n1 = 10;
    int m2[100], n2 = 10;
    int m3[100], n3 = 10;

    fillArray(n1, m1);
    fillArray(n2, m2);
    fillArray(n3, m3);
    saveToFile ("data.bin", m1, n1);
    saveToFile ("data.bin", m3, n3);
    loadFromFile ("data.bin", m1, n1);
    saveToFile ("data2.bin", m2, n2);
    loadFromFile ("data2.bin", m3, n3);
    loadFromFile ("data.bin", m2, n2);

    if (saveCount == 3 && loadCount == 3 )
        printf("All good\n");
    else
        printf("Something’s wrong %d %d\n", saveCount, loadCount);



    return 0;
}
void fillArray ( int size, int m[])
{
    int r;
    srand(time(
# 68 "main.c" 3 4
              ((void *)0)
# 68 "main.c"
                  ));
    for ( int i = 0 ; i < size; i++ ){
        r = rand() % (100 + 1 - 1) + 1;
        m[i] = r;
    }

}
void printArray ( int size, int m[])
{
    printf("Sugeneruotas masyvas: ");
    for ( int i = 0 ; i < size; i++ ){
        printf("%d ", m[i]);
    }
    printf("\n");
}
